<?xml version="1.0" encoding="UTF-8"?>
<!DOCTYPE svg PUBLIC "-//W3C//DTD SVG 1.1//EN" "http://www.w3.org/Graphics/SVG/1.1/DTD/svg11.dtd">
<!-- Creator: CorelDRAW 2018 (64-Bit) -->
<svg xmlns="http://www.w3.org/2000/svg" xml:space="preserve" width="26.0784mm" height="21.7376mm" version="1.1" style="shape-rendering:geometricPrecision; text-rendering:geometricPrecision; image-rendering:optimizeQuality; fill-rule:evenodd; clip-rule:evenodd"
viewBox="0 0 26.62 22.19"
 xmlns:xlink="http://www.w3.org/1999/xlink">
 <defs>
  <style type="text/css">
   <![CDATA[
    .str2 {stroke:#5394BF;stroke-width:0.2;stroke-miterlimit:22.9256}
    .str0 {stroke:#C5C6C6;stroke-width:0.95;stroke-miterlimit:10}
    .str1 {stroke:#5394BF;stroke-width:0.95;stroke-linecap:square;stroke-miterlimit:10}
    .fil0 {fill:none}
    .fil1 {fill:#5394BF;fill-rule:nonzero}
   ]]>
  </style>
 </defs>
 <g id="Warstwa_x0020_1">
  <metadata id="CorelCorpID_0Corel-Layer"/>
  <polygon class="fil0 str0" points="0.47,21.71 26.15,21.71 26.15,0.47 0.47,0.47 "/>
  <line class="fil0 str0" x1="0.47" y1="3.99" x2="24.33" y2= "3.99" />
  <line class="fil0 str0" x1="2.09" y1="2.25" x2="3.01" y2= "2.25" />
  <line class="fil0 str0" x1="3.94" y1="2.25" x2="4.86" y2= "2.25" />
  <line class="fil0 str0" x1="5.79" y1="2.25" x2="6.71" y2= "2.25" />
  <polyline class="fil0 str1" points="10.91,9.52 18.19,9.52 16.57,13.57 10.38,13.57 8.2,7.91 6.81,7.91 "/>
  <path class="fil0 str1" d="M16.93 15.6l-6.77 0c-0.27,0 -0.44,-0.26 -0.34,-0.53l0.56 -1.51"/>
  <path class="fil1 str2" d="M16.88 17.18c0,0.4 -0.32,0.72 -0.72,0.72 -0.4,0 -0.72,-0.32 -0.72,-0.72 0,-0.4 0.32,-0.72 0.72,-0.72 0.4,0 0.72,0.32 0.72,0.72z"/>
  <path class="fil1 str2" d="M11.48 17.18c0,0.4 -0.32,0.72 -0.72,0.72 -0.4,0 -0.72,-0.32 -0.72,-0.72 0,-0.4 0.32,-0.72 0.72,-0.72 0.4,0 0.72,0.32 0.72,0.72z"/>
 </g>
</svg>
