<?xml version="1.0" encoding="UTF-8"?>
<!DOCTYPE svg PUBLIC "-//W3C//DTD SVG 1.1//EN" "http://www.w3.org/Graphics/SVG/1.1/DTD/svg11.dtd">
<!-- Creator: CorelDRAW 2018 (64-Bit) -->
<svg xmlns="http://www.w3.org/2000/svg" xml:space="preserve" width="26.4955mm" height="26.2425mm" version="1.1" style="shape-rendering:geometricPrecision; text-rendering:geometricPrecision; image-rendering:optimizeQuality; fill-rule:evenodd; clip-rule:evenodd"
viewBox="0 0 29.2 28.92"
 xmlns:xlink="http://www.w3.org/1999/xlink">
 <defs>
  <style type="text/css">
   <![CDATA[
    .str0 {stroke:#C5C6C6;stroke-width:1.02;stroke-linecap:square;stroke-miterlimit:10}
    .str1 {stroke:#5394BF;stroke-width:1.02;stroke-linecap:square;stroke-miterlimit:10}
    .fil0 {fill:none}
   ]]>
  </style>
 </defs>
 <g id="Warstwa_x0020_1">
  <metadata id="CorelCorpID_0Corel-Layer"/>
  <g id="_2218165511648">
   <polyline class="fil0 str0" points="21.15,11.95 21.15,28.41 28.69,28.41 28.69,9.44 23.23,9.44 "/>
   <polyline class="fil0 str0" points="19.45,4.68 21.15,4.68 21.15,28.41 8.05,28.41 8.05,4.68 9.75,4.68 "/>
   <line class="fil0 str1" x1="23.71" y1="15.09" x2="26.12" y2= "15.09" />
   <line class="fil0 str0" x1="11.29" y1="10.16" x2="12.77" y2= "10.16" />
   <line class="fil0 str0" x1="11.29" y1="12.66" x2="12.77" y2= "12.66" />
   <line class="fil0 str0" x1="11.29" y1="15.16" x2="12.77" y2= "15.16" />
   <line class="fil0 str0" x1="11.29" y1="17.66" x2="12.77" y2= "17.66" />
   <line class="fil0 str0" x1="11.29" y1="20.15" x2="12.77" y2= "20.15" />
   <line class="fil0 str0" x1="16.43" y1="10.16" x2="17.91" y2= "10.16" />
   <line class="fil0 str0" x1="16.43" y1="12.66" x2="17.91" y2= "12.66" />
   <line class="fil0 str0" x1="16.43" y1="15.16" x2="17.91" y2= "15.16" />
   <line class="fil0 str0" x1="16.43" y1="17.66" x2="17.91" y2= "17.66" />
   <line class="fil0 str0" x1="16.43" y1="20.15" x2="17.91" y2= "20.15" />
   <line class="fil0 str1" x1="23.71" y1="17.88" x2="26.12" y2= "17.88" />
   <line class="fil0 str1" x1="23.71" y1="15.16" x2="26.12" y2= "15.16" />
   <line class="fil0 str1" x1="23.71" y1="12.44" x2="26.12" y2= "12.44" />
   <line class="fil0 str1" x1="23.71" y1="20.67" x2="26.12" y2= "20.67" />
   <line class="fil0 str1" x1="23.71" y1="23.46" x2="26.12" y2= "23.46" />
   <polyline class="fil0 str0" points="8.05,11.95 8.05,28.41 0.51,28.41 0.51,13.41 5.9,9.96 "/>
   <line class="fil0 str1" x1="5.49" y1="15.09" x2="3.07" y2= "15.09" />
   <line class="fil0 str1" x1="5.49" y1="17.88" x2="3.07" y2= "17.88" />
   <line class="fil0 str1" x1="5.49" y1="20.67" x2="3.07" y2= "20.67" />
   <line class="fil0 str1" x1="5.49" y1="23.46" x2="3.07" y2= "23.46" />
   <polyline class="fil0 str0" points="16.58,26.64 16.58,23.31 12.62,23.31 12.62,26.64 "/>
   <line class="fil0 str0" x1="14.6" y1="2.4" x2="14.6" y2= "0.51" />
   <polygon class="fil0 str0" points="11.64,4.68 17.56,4.68 17.56,2.67 11.64,2.67 "/>
   <line class="fil0 str0" x1="24.92" y1="9.44" x2="24.92" y2= "8.07" />
  </g>
 </g>
</svg>
