<?xml version="1.0" encoding="UTF-8"?>
<!DOCTYPE svg PUBLIC "-//W3C//DTD SVG 1.1//EN" "http://www.w3.org/Graphics/SVG/1.1/DTD/svg11.dtd">
<!-- Creator: CorelDRAW 2018 (64-Bit) -->
<svg xmlns="http://www.w3.org/2000/svg" xml:space="preserve" width="31.2976mm" height="19.5244mm" version="1.1" style="shape-rendering:geometricPrecision; text-rendering:geometricPrecision; image-rendering:optimizeQuality; fill-rule:evenodd; clip-rule:evenodd"
viewBox="0 0 40.67 25.37"
 xmlns:xlink="http://www.w3.org/1999/xlink">
 <defs>
  <style type="text/css">
   <![CDATA[
    .str0 {stroke:#9D9E9E;stroke-width:1.21;stroke-linecap:square;stroke-miterlimit:10}
    .str1 {stroke:#9D9E9E;stroke-width:1.21;stroke-linecap:square;stroke-linejoin:round;stroke-miterlimit:10}
    .fil0 {fill:none}
   ]]>
  </style>
 </defs>
 <g id="Warstwa_x0020_1">
  <metadata id="CorelCorpID_0Corel-Layer"/>
  <g id="_2439570251584">
   <polyline class="fil0 str0" points="10.45,24.54 1.04,24.54 7.26,13.62 13.49,24.54 18.4,24.54 "/>
   <polyline class="fil0 str0" points="26.31,16.78 21.55,24.54 36.81,24.54 "/>
   <polyline class="fil0 str0" points="39.84,24.54 30.69,9.64 27.99,14.04 "/>
   <line class="fil0 str0" x1="28.53" y1="13.12" x2="30.13" y2= "10.55" />
   <polyline class="fil0 str1" points="26.96,13.12 27.71,14.42 28.53,13.12 "/>
   <polyline class="fil0 str0" points="11.16,15.47 20.02,1.17 26.96,13.12 "/>
   <path class="fil0 str0" d="M9.91 4.89c0,1.38 -1.12,2.49 -2.49,2.49 -1.38,0 -2.49,-1.12 -2.49,-2.49 0,-1.38 1.12,-2.49 2.49,-2.49 1.38,0 2.49,1.12 2.49,2.49z"/>
   <polyline class="fil0 str0" points="16.4,7.38 17.48,8.43 18.55,7.38 19.63,8.43 20.71,7.38 21.78,8.43 "/>
   <polyline class="fil0 str0" points="4.89,18.23 5.88,19.19 6.87,18.23 7.86,19.19 "/>
   <polyline class="fil0 str0" points="28.05,14.68 29.06,15.62 30.03,14.64 31.04,15.58 31.61,15 "/>
   <path class="fil0 str0" d="M30.69 5.27c-0.95,0 -2.14,0.48 -2.14,1.42"/>
   <path class="fil0 str0" d="M26.4 5.27c0.95,0 2.14,0.48 2.14,1.42"/>
  </g>
 </g>
</svg>
