<?xml version="1.0" encoding="UTF-8"?>
<!DOCTYPE svg PUBLIC "-//W3C//DTD SVG 1.1//EN" "http://www.w3.org/Graphics/SVG/1.1/DTD/svg11.dtd">
<!-- Creator: CorelDRAW 2018 (64-Bit) -->
<svg xmlns="http://www.w3.org/2000/svg" xml:space="preserve" width="17.7507mm" height="27.2907mm" version="1.1" style="shape-rendering:geometricPrecision; text-rendering:geometricPrecision; image-rendering:optimizeQuality; fill-rule:evenodd; clip-rule:evenodd"
viewBox="0 0 15.12 23.25"
 xmlns:xlink="http://www.w3.org/1999/xlink">
 <defs>
  <style type="text/css">
   <![CDATA[
    .str0 {stroke:#9D9E9E;stroke-width:0.68;stroke-linecap:square;stroke-miterlimit:10}
    .fil0 {fill:none;fill-rule:nonzero}
   ]]>
  </style>
 </defs>
 <g id="Warstwa_x0020_1">
  <metadata id="CorelCorpID_0Corel-Layer"/>
  <g id="_2444205234624">
   <path class="fil0 str0" d="M8.27 13.86l1.74 3.53c-0.7,0.81 -0.87,2.14 -0.35,3.39 0.69,1.64 2.33,2.52 3.65,1.96 1.33,-0.56 1.85,-2.34 1.16,-3.98 -0.56,-1.32 -1.72,-2.15 -2.85,-2.13l-1.96 -4"/>
   <path class="fil0 str0" d="M5.11 10.14l-2.08 -6.46c-0.11,-0.35 -0.09,-0.72 0.05,-1.05l0.75 -1.81 2.69 5.45"/>
   <path class="fil0 str0" d="M12.05 2.63l-0.75 -1.81 -4.03 8.16 -0 -0 -3.78 7.65c-1.13,-0.02 -2.3,0.81 -2.85,2.13 -0.69,1.64 -0.17,3.43 1.16,3.98 1.33,0.56 2.96,-0.32 3.65,-1.96 0.52,-1.25 0.35,-2.58 -0.35,-3.39l1.82 -3.69 0.16 0.08c0.86,0.42 1.89,-0.02 2.17,-0.94l2.83 -9.17c0.11,-0.35 0.09,-0.72 -0.05,-1.05z"/>
   <path class="fil0 str0" d="M10.9 20.26c0.34,0.8 1.13,1.23 1.78,0.95 0.65,-0.27 0.9,-1.14 0.56,-1.94 -0.34,-0.8 -1.13,-1.23 -1.78,-0.95 -0.65,0.27 -0.9,1.14 -0.56,1.94z"/>
   <path class="fil0 str0" d="M7.11 11.88c0.1,-0.29 0.41,-0.44 0.7,-0.34 0.29,0.1 0.44,0.41 0.34,0.7 -0.1,0.29 -0.41,0.44 -0.7,0.34 -0.29,-0.1 -0.44,-0.41 -0.34,-0.7z"/>
   <path class="fil0 str0" d="M4.22 20.26c-0.34,0.8 -1.13,1.23 -1.78,0.95 -0.65,-0.27 -0.9,-1.14 -0.56,-1.94 0.34,-0.8 1.13,-1.23 1.78,-0.95 0.65,0.27 0.9,1.14 0.56,1.94z"/>
  </g>
 </g>
</svg>
